{
  "project_info": {
    "project_number": "451450557324",
    "project_id": "projectfinal-586b7",
    "storage_bucket": "projectfinal-586b7.appspot.com"
  },
  "client": [
    {
      "client_info": {
        "mobilesdk_app_id": "1:451450557324:android:eedc872b3a20f3b14dfca9",
        "android_client_info": {
          "package_name": "com.example.hungry_time_bangsaen"
        }
      },
      "oauth_client": [
        {
          "client_id": "451450557324-omrh0ejcgpt9ulmavuqahe1bobik2c98.apps.googleusercontent.com",
          "client_type": 1,
          "android_info": {
            "package_name": "com.example.hungry_time_bangsaen",
            "certificate_hash": "a6b241409d57ae9c9d5e960d0f2d028472355fb0"
          }
        },
        {
          "client_id": "451450557324-ejpnss4271neji9ea217ul7h3f78ivvp.apps.googleusercontent.com",
          "client_type": 3
        }
      ],
      "api_key": [
        {
          "current_key": "AIzaSyBs2-LAFGCbiOBJkeb-a7c6Dj_b4-bp8RY"
        }
      ],
      "services": {
        "appinvite_service": {
          "other_platform_oauth_client": [
            {
              "client_id": "451450557324-ejpnss4271neji9ea217ul7h3f78ivvp.apps.googleusercontent.com",
              "client_type": 3
            }
          ]
        }
      }
    }
  ],
  "configuration_version": "1"
}